Data download by column names — data_download • qacdata
…
      ...
      strings of col_id's found with data_search

    Value

    A dataframe w/ the input col_id's as columns with the
  appropriate metadata

    Examples

data_download("FRED", "LNU04027659", "G160291A027NBEA")
#> # A tibble: 368 x 3
#>    date       LNU04027659 G160291A027NBEA
#>    <date>           <dbl>           <dbl>
#>  1 1992-01-01        12.3            309.
#>  2 1992-02-01        12.2             NA 
#>  3 1992-03-01        12.4             NA 
#>  4 1992-04-01        10.7             NA 
#>  5 1992-05-01        11.2             NA 
#>  6 1992-06-01        11.4             NA 
#>  7 1992-07-01        11.7             NA 
#>  8 1992-08-01        11.1             NA 
#>  9 1992-09-01        10.9             NA 
#> 10 1992-10-01        10.8             NA 
#> # ... with 358 more rows
data_download("WDI", "1.0.PSev.1.90usd", "SP.PRM.TOTL.FE.IN")
#> Error in .f(.x[[i]], ...): object 'rez' not found
data_download("AddHealth", "H4TR10", "H4CJ5")
#> # A tibble: 5,114 x 2
#>    H4TR10 H4CJ5
#>     <dbl> <dbl>
#>  1      4   997
#>  2     97   997
#>  3     97     1
#>  4     97   997
#>  5      1   997
#>  6      1   997
#>  7      3   997
#>  8      1   997
#>  9      2   997
#> 10      2   997
#> # ... with 5,104 more rows
data_download("CtTraffic", "Intervention_Date","Contraband")
#> # A tibble: 366,060 x 2
#>    Intervention_Date Contraband
#>    <chr>                  <dbl>
#>  1 10/1/2013                  0
#>  2 10/1/2013                  0
#>  3 10/1/2013                  0
#>  4 10/2/2013                  0
#>  5 10/3/2013                  0
#>  6 10/3/2013                  0
#>  7 10/4/2013                  0
#>  8 10/4/2013                  0
#>  9 10/4/2013                  0
#> 10 10/5/2013                  0
#> # ... with 366,050 more rows
…
